{
    "count": 11,
    "next": "http://testserver/community/?format=json&page=2",
    "previous": null,
    "pages_count": 2,
    "current_page_number": 1,
    "items_per_page": 10,
    "results": [
        {
            "id": 12,
            "person": {
                "actor_id": 15,
                "roles": [
                    "Volunteer Picker"
                ],
                "name": "Onboarding",
                "email": "onboarding@user.com",
                "phone": "111-111-1111, press 1",
                "neighborhood": null,
                "comments": "",
                "harvests": [],
                "organizations_as_contact": [],
                "properties": []
            },
            "roles": [
                "Volunteer Picker"
            ],
            "role_codes": [
                "volunteer"
            ],
            "date_joined": "2026-05-07",
            "password": "pbkdf2_sha256$600000$GCQkAMispOGQcguk8CJexU$pKn3ZEC0B0D3u4YGso+Dh5CHJn2sH20JR35qRWWoOgg=",
            "last_login": null,
            "is_superuser": false,
            "has_temporary_password": true,
            "agreed_terms": false,
            "email": "onboarding@user.com",
            "is_active": true,
            "is_staff": false,
            "groups": [
                4
            ],
            "user_permissions": []
        },
        {
            "id": 10,
            "person": {
                "actor_id": 13,
                "roles": [
                    "Property Owner",
                    "Volunteer Picker"
                ],
                "name": "Michelle Delepeche",
                "email": "michelle@delpe.ch",
                "phone": "(438) 123-1234",
                "neighborhood": null,
                "comments": "",
                "harvests": [
                    {
                        "id": 6,
                        "pick_leader": null,
                        "property": "Michelle Delepeche at 67 rue de l'Oseille",
                        "status": "orphan",
                        "status_display": "Orphan",
                        "start_date": "2026-05-01",
                        "role": "owner"
                    },
                    {
                        "id": 7,
                        "pick_leader": "Core Member",
                        "property": "Michelle Delepeche at 67 rue de l'Oseille",
                        "status": "succeeded",
                        "status_display": "Succeeded",
                        "start_date": "2025-08-06",
                        "role": "owner"
                    }
                ],
                "organizations_as_contact": [],
                "properties": [
                    {
                        "id": 11,
                        "short_address": "67 rue de l'Oseille"
                    }
                ]
            },
            "roles": [
                "Property Owner",
                "Volunteer Picker"
            ],
            "role_codes": [
                "owner",
                "volunteer"
            ],
            "date_joined": "2026-01-25",
            "password": "",
            "last_login": null,
            "is_superuser": false,
            "has_temporary_password": false,
            "agreed_terms": false,
            "email": "michelle@delpe.ch",
            "is_active": true,
            "is_staff": false,
            "groups": [
                2,
                4
            ],
            "user_permissions": []
        },
        {
            "id": 9,
            "person": {
                "actor_id": 12,
                "roles": [
                    "Property Owner"
                ],
                "name": "Plum Mendès",
                "email": "plum.mendes@pulp.ca",
                "phone": null,
                "neighborhood": {
                    "id": 31,
                    "name": "Villeray"
                },
                "comments": "",
                "harvests": [
                    {
                        "id": 5,
                        "pick_leader": "Core Member",
                        "property": "Plum Mendès at 5670 Veranda st.",
                        "status": "scheduled",
                        "status_display": "Scheduled",
                        "start_date": "2026-10-01",
                        "role": "owner"
                    }
                ],
                "organizations_as_contact": [],
                "properties": [
                    {
                        "id": 6,
                        "short_address": "5670 Veranda st."
                    }
                ]
            },
            "roles": [
                "Property Owner"
            ],
            "role_codes": [
                "owner"
            ],
            "date_joined": "2026-01-25",
            "password": "",
            "last_login": null,
            "is_superuser": false,
            "has_temporary_password": false,
            "agreed_terms": false,
            "email": "plum.mendes@pulp.ca",
            "is_active": true,
            "is_staff": false,
            "groups": [
                2
            ],
            "user_permissions": []
        },
        {
            "id": 8,
            "person": {
                "actor_id": 11,
                "roles": [
                    "Property Owner"
                ],
                "name": "Kate Bush",
                "email": "kate@bush.com",
                "phone": null,
                "neighborhood": {
                    "id": 12,
                    "name": "Montréal-Nord"
                },
                "comments": "Is she famous?",
                "harvests": [],
                "organizations_as_contact": [],
                "properties": [
                    {
                        "id": 5,
                        "short_address": "57 rue des érablières, B"
                    }
                ]
            },
            "roles": [
                "Property Owner"
            ],
            "role_codes": [
                "owner"
            ],
            "date_joined": "2026-01-25",
            "password": "",
            "last_login": null,
            "is_superuser": false,
            "has_temporary_password": false,
            "agreed_terms": false,
            "email": "kate@bush.com",
            "is_active": true,
            "is_staff": false,
            "groups": [
                2
            ],
            "user_permissions": []
        },
        {
            "id": 7,
            "person": {
                "actor_id": 10,
                "roles": [],
                "name": "Admin Istrator",
                "email": "admin@admin.com",
                "phone": null,
                "neighborhood": null,
                "comments": "",
                "harvests": [],
                "organizations_as_contact": [],
                "properties": []
            },
            "roles": [],
            "role_codes": [],
            "date_joined": "2026-01-24",
            "password": "pbkdf2_sha256$600000$QYYe9epryqzrNGNFJ62V7x$1zpWIvEfIWW4KVFFfasVqSShjKMI6phq9jeDDErjygU=",
            "last_login": "2026-05-17T11:51:55.043000-04:00",
            "is_superuser": true,
            "has_temporary_password": false,
            "agreed_terms": true,
            "email": "admin@admin.com",
            "is_active": true,
            "is_staff": true,
            "groups": [
                6
            ],
            "user_permissions": []
        },
        {
            "id": 6,
            "person": {
                "actor_id": 6,
                "roles": [
                    "Contact Person"
                ],
                "name": "Contact Person",
                "email": "contact@person.com",
                "phone": null,
                "neighborhood": null,
                "comments": "",
                "harvests": [],
                "organizations_as_contact": [
                    {
                        "pk": 8,
                        "civil_name": "Deprecated Org."
                    },
                    {
                        "pk": 7,
                        "civil_name": "L'Orgue Bien Équipée"
                    }
                ],
                "properties": []
            },
            "roles": [
                "Contact Person"
            ],
            "role_codes": [
                "contact"
            ],
            "date_joined": "2025-03-17",
            "password": "",
            "last_login": null,
            "is_superuser": false,
            "has_temporary_password": false,
            "agreed_terms": false,
            "email": "contact@person.com",
            "is_active": true,
            "is_staff": false,
            "groups": [
                5
            ],
            "user_permissions": []
        },
        {
            "id": 11,
            "person": {
                "actor_id": 14,
                "roles": [
                    "Core Member",
                    "Pick Leader"
                ],
                "name": "Inactive User",
                "email": "inactive@user.com",
                "phone": null,
                "neighborhood": {
                    "id": 11,
                    "name": "Mile End"
                },
                "comments": "",
                "harvests": [],
                "organizations_as_contact": [],
                "properties": []
            },
            "roles": [
                "Core Member",
                "Pick Leader"
            ],
            "role_codes": [
                "core",
                "pickleader"
            ],
            "date_joined": "2022-05-07",
            "password": "pbkdf2_sha256$600000$inQFnMH8U4kUqswGDKlGkq$ei3cFOYmKOx5IVXjWr0NXcCroqzcVrQVgVR8nM1mfV4=",
            "last_login": "2022-05-13T07:55:14.028000-04:00",
            "is_superuser": false,
            "has_temporary_password": false,
            "agreed_terms": false,
            "email": "inactive@user.com",
            "is_active": false,
            "is_staff": true,
            "groups": [
                1,
                3
            ],
            "user_permissions": []
        },
        {
            "id": 5,
            "person": {
                "actor_id": 1,
                "roles": [
                    "Property Owner"
                ],
                "name": "Nice Owner",
                "email": "nice@owner.com",
                "phone": "(514) 666-1234",
                "neighborhood": {
                    "id": 19,
                    "name": "Plateau-Mont-Royal"
                },
                "comments": "Passer par l'arrière ruelle",
                "harvests": [
                    {
                        "id": 4,
                        "pick_leader": "Core Member",
                        "property": "Nice Owner at 123 av. Mont-Royal",
                        "status": "scheduled",
                        "status_display": "Scheduled",
                        "start_date": "2026-08-01",
                        "role": "owner"
                    },
                    {
                        "id": 2,
                        "pick_leader": "Pick Leader",
                        "property": "Nice Owner at 123 av. Mont-Royal",
                        "status": "ready",
                        "status_display": "Ready",
                        "start_date": "2026-07-24",
                        "role": "owner"
                    },
                    {
                        "id": 3,
                        "pick_leader": "Core Member",
                        "property": "Nice Owner at 123 av. Mont-Royal",
                        "status": "cancelled",
                        "status_display": "Cancelled",
                        "start_date": "2026-01-22",
                        "role": "owner"
                    },
                    {
                        "id": 1,
                        "pick_leader": "Pick Leader",
                        "property": "Nice Owner at 123 av. Mont-Royal",
                        "status": "succeeded",
                        "status_display": "Succeeded",
                        "start_date": "2026-01-19",
                        "role": "owner"
                    }
                ],
                "organizations_as_contact": [
                    {
                        "pk": 2,
                        "civil_name": "Les Fruits Défendus"
                    }
                ],
                "properties": [
                    {
                        "id": 3,
                        "short_address": "123 av. Mont-Royal, apt. 4"
                    }
                ]
            },
            "roles": [
                "Property Owner"
            ],
            "role_codes": [
                "owner"
            ],
            "date_joined": "2021-06-15",
            "password": "",
            "last_login": null,
            "is_superuser": false,
            "has_temporary_password": false,
            "agreed_terms": false,
            "email": "nice@owner.com",
            "is_active": true,
            "is_staff": false,
            "groups": [
                2
            ],
            "user_permissions": []
        },
        {
            "id": 4,
            "person": {
                "actor_id": 5,
                "roles": [
                    "Core Member"
                ],
                "name": "Core Member",
                "email": "core@member.com",
                "phone": "(514) 123-4321",
                "neighborhood": {
                    "id": 11,
                    "name": "Mile End"
                },
                "comments": "",
                "harvests": [
                    {
                        "id": 5,
                        "pick_leader": "Core Member",
                        "property": "Plum Mendès at 5670 Veranda st.",
                        "status": "scheduled",
                        "status_display": "Scheduled",
                        "start_date": "2026-10-01",
                        "role": "pickleader"
                    },
                    {
                        "id": 4,
                        "pick_leader": "Core Member",
                        "property": "Nice Owner at 123 av. Mont-Royal",
                        "status": "scheduled",
                        "status_display": "Scheduled",
                        "start_date": "2026-08-01",
                        "role": "pickleader"
                    },
                    {
                        "id": 3,
                        "pick_leader": "Core Member",
                        "property": "Nice Owner at 123 av. Mont-Royal",
                        "status": "cancelled",
                        "status_display": "Cancelled",
                        "start_date": "2026-01-22",
                        "role": "pickleader"
                    },
                    {
                        "id": 1,
                        "pick_leader": "Pick Leader",
                        "property": "Nice Owner at 123 av. Mont-Royal",
                        "status": "succeeded",
                        "status_display": "Succeeded",
                        "start_date": "2026-01-19",
                        "role": "volunteer",
                        "rfp_status": "declined"
                    },
                    {
                        "id": 1,
                        "pick_leader": "Pick Leader",
                        "property": "Nice Owner at 123 av. Mont-Royal",
                        "status": "succeeded",
                        "status_display": "Succeeded",
                        "start_date": "2026-01-19",
                        "role": "volunteer",
                        "rfp_status": "declined"
                    },
                    {
                        "id": 1,
                        "pick_leader": "Pick Leader",
                        "property": "Nice Owner at 123 av. Mont-Royal",
                        "status": "succeeded",
                        "status_display": "Succeeded",
                        "start_date": "2026-01-19",
                        "role": "volunteer",
                        "rfp_status": "cancelled"
                    },
                    {
                        "id": 1,
                        "pick_leader": "Pick Leader",
                        "property": "Nice Owner at 123 av. Mont-Royal",
                        "status": "succeeded",
                        "status_display": "Succeeded",
                        "start_date": "2026-01-19",
                        "role": "volunteer",
                        "rfp_status": "cancelled"
                    },
                    {
                        "id": 7,
                        "pick_leader": "Core Member",
                        "property": "Michelle Delepeche at 67 rue de l'Oseille",
                        "status": "succeeded",
                        "status_display": "Succeeded",
                        "start_date": "2025-08-06",
                        "role": "pickleader"
                    }
                ],
                "organizations_as_contact": [
                    {
                        "pk": 9,
                        "civil_name": "Le Vestibule Vert"
                    }
                ],
                "properties": []
            },
            "roles": [
                "Core Member"
            ],
            "role_codes": [
                "core"
            ],
            "date_joined": "2021-06-14",
            "password": "pbkdf2_sha256$260000$XSSo62sasEikkh7QT6pmhP$0euWqhRjDM+odkonz31c62r3ozp5Nm2tB6UyB20d7PA=",
            "last_login": "2021-09-19T20:08:21.765000-04:00",
            "is_superuser": false,
            "has_temporary_password": false,
            "agreed_terms": false,
            "email": "core@member.com",
            "is_active": true,
            "is_staff": true,
            "groups": [
                1
            ],
            "user_permissions": []
        },
        {
            "id": 3,
            "person": {
                "actor_id": 4,
                "roles": [
                    "Volunteer Picker"
                ],
                "name": "Volunteer Picker",
                "email": "volunteer@picker.com",
                "phone": "(438) 666-1234",
                "neighborhood": null,
                "comments": "",
                "harvests": [
                    {
                        "id": 7,
                        "pick_leader": "Core Member",
                        "property": "Michelle Delepeche at 67 rue de l'Oseille",
                        "status": "succeeded",
                        "status_display": "Succeeded",
                        "start_date": "2025-08-06",
                        "role": "volunteer",
                        "rfp_status": "accepted"
                    }
                ],
                "organizations_as_contact": [],
                "properties": []
            },
            "roles": [
                "Volunteer Picker"
            ],
            "role_codes": [
                "volunteer"
            ],
            "date_joined": "2021-05-31",
            "password": "",
            "last_login": null,
            "is_superuser": false,
            "has_temporary_password": false,
            "agreed_terms": false,
            "email": "volunteer@picker.com",
            "is_active": true,
            "is_staff": false,
            "groups": [
                4
            ],
            "user_permissions": []
        }
    ]
}